\babel@toc {spanish}{}
\contentsline {chapter}{listfigurename}{3}
\contentsline {chapter}{\numberline {1}El paisaje}{7}
\contentsline {section}{\numberline {1.1}En un lugar}{7}
\contentsline {subsection}{\numberline {1.1.1}Los nacimientos}{8}
\contentsline {chapter}{\numberline {2}Al d\'ia siguiente}{11}
\contentsline {section}{\numberline {2.1}El patito diferente tambi\'en sabe nadar}{12}
\contentsline {chapter}{\numberline {3}Se meten con el patito}{15}
\contentsline {section}{\numberline {3.1}A la ma\IeC {\~n}ana siguiente}{16}
\contentsline {chapter}{\numberline {4}Los disparos los los interrumpieron\dots }{17}
\contentsline {chapter}{\numberline {5}Por la noche}{19}
\contentsline {chapter}{\numberline {6}El patito casi se muere}{23}
\contentsline {section}{\numberline {6.1}Le recoge un granjero}{23}
\contentsline {chapter}{\numberline {7}Entonces lleg\'o la primavera}{25}
