\babel@toc {spanish}{}
\addvspace {10\p@ }
\contentsline {figure}{\numberline {1.1}{\ignorespaces La mam\IeC {\'a} Pata espera los nacimientos}}{8}
\contentsline {figure}{\numberline {1.2}{\ignorespaces Los huevos antes de nacer}}{9}
\contentsline {figure}{\numberline {1.3}{\ignorespaces Los patitos al nacer}}{9}
\contentsline {figure}{\numberline {1.4}{\ignorespaces El patito ha nacido un patito m\'as grande}}{10}
\addvspace {10\p@ }
\contentsline {figure}{\numberline {2.1}{\ignorespaces El patito est\'a nadnado}}{11}
\contentsline {figure}{\numberline {2.2}{\ignorespaces Hay que tener cuidado con el gato}}{12}
\contentsline {figure}{\numberline {2.3}{\ignorespaces Mam\'a Pata ense\~na a los patitos}}{13}
\addvspace {10\p@ }
\contentsline {figure}{\numberline {3.1}{\ignorespaces El patito est\'a triste}}{15}
\contentsline {figure}{\numberline {3.2}{\ignorespaces El patito se encuentra con los gansos}}{16}
\addvspace {10\p@ }
\contentsline {figure}{\numberline {4.1}{\ignorespaces El patito se encuentra con los perros}}{18}
\addvspace {10\p@ }
\contentsline {figure}{\numberline {5.1}{\ignorespaces El patito se va recorrer mundo}}{21}
\addvspace {10\p@ }
\addvspace {10\p@ }
