\relax 
\catcode `"\active 
\catcode `<\active 
\catcode `>\active 
\@nameuse{es@quoting}
\babel@aux{spanish}{}
\@writefile{toc}{\contentsline {chapter}{listfigurename}{3}}
\@writefile{toc}{\contentsline {chapter}{\numberline {1}El paisaje}{7}}
\@writefile{lof}{\addvspace {10\p@ }}
\@writefile{lot}{\addvspace {10\p@ }}
\@writefile{toc}{\contentsline {section}{\numberline {1.1}En un lugar}{7}}
\@writefile{lof}{\contentsline {figure}{\numberline {1.1}{\ignorespaces La mam\IeC {\'a} Pata espera los nacimientos}}{8}}
\@writefile{toc}{\contentsline {subsection}{\numberline {1.1.1}Los nacimientos}{8}}
\@writefile{lof}{\contentsline {figure}{\numberline {1.2}{\ignorespaces Los huevos antes de nacer}}{9}}
\@writefile{lof}{\contentsline {figure}{\numberline {1.3}{\ignorespaces Los patitos al nacer}}{9}}
\@writefile{lof}{\contentsline {figure}{\numberline {1.4}{\ignorespaces El patito ha nacido un patito m\'as grande}}{10}}
\@writefile{toc}{\contentsline {chapter}{\numberline {2}Al d\'ia siguiente}{11}}
\@writefile{lof}{\addvspace {10\p@ }}
\@writefile{lot}{\addvspace {10\p@ }}
\@writefile{lof}{\contentsline {figure}{\numberline {2.1}{\ignorespaces El patito est\'a nadnado}}{11}}
\@writefile{toc}{\contentsline {section}{\numberline {2.1}El patito diferente tambi\'en sabe nadar}{12}}
\@writefile{lof}{\contentsline {figure}{\numberline {2.2}{\ignorespaces Hay que tener cuidado con el gato}}{12}}
\@writefile{lof}{\contentsline {figure}{\numberline {2.3}{\ignorespaces Mam\'a Pata ense\~na a los patitos}}{13}}
\@writefile{toc}{\contentsline {chapter}{\numberline {3}Se meten con el patito}{15}}
\@writefile{lof}{\addvspace {10\p@ }}
\@writefile{lot}{\addvspace {10\p@ }}
\@writefile{lof}{\contentsline {figure}{\numberline {3.1}{\ignorespaces El patito est\'a triste}}{15}}
\@writefile{toc}{\contentsline {section}{\numberline {3.1}A la ma\IeC {\~n}ana siguiente}{16}}
\@writefile{lof}{\contentsline {figure}{\numberline {3.2}{\ignorespaces El patito se encuentra con los gansos}}{16}}
\@writefile{toc}{\contentsline {chapter}{\numberline {4}Los disparos los los interrumpieron\dots  }{17}}
\@writefile{lof}{\addvspace {10\p@ }}
\@writefile{lot}{\addvspace {10\p@ }}
\@writefile{lof}{\contentsline {figure}{\numberline {4.1}{\ignorespaces El patito se encuentra con los perros}}{18}}
\@writefile{toc}{\contentsline {chapter}{\numberline {5}Por la noche}{19}}
\@writefile{lof}{\addvspace {10\p@ }}
\@writefile{lot}{\addvspace {10\p@ }}
\@writefile{lof}{\contentsline {figure}{\numberline {5.1}{\ignorespaces El patito se va recorrer mundo}}{21}}
\@writefile{toc}{\contentsline {chapter}{\numberline {6}El patito casi se muere}{23}}
\@writefile{lof}{\addvspace {10\p@ }}
\@writefile{lot}{\addvspace {10\p@ }}
\@writefile{toc}{\contentsline {section}{\numberline {6.1}Le recoge un granjero}{23}}
\@writefile{toc}{\contentsline {chapter}{\numberline {7}Entonces lleg\'o la primavera}{25}}
\@writefile{lof}{\addvspace {10\p@ }}
\@writefile{lot}{\addvspace {10\p@ }}
