\relax 
\@writefile{toc}{\contentsline {section}{\numberline {1}Combinaciones}{1}}
\@writefile{toc}{\contentsline {section}{\numberline {2}Unidades}{1}}
\@writefile{toc}{\contentsline {section}{\numberline {3}M\'ultiplos}{1}}
\@writefile{toc}{\contentsline {section}{\numberline {4}D.E.F. de Informaci\'on}{1}}
\@writefile{toc}{\contentsline {subsection}{\numberline {4.1}Logaritmos}{1}}
\@writefile{toc}{\contentsline {paragraph}{\relax $\@@underline {\hbox {0}}\mathsurround \z@ $\relax }{1}}
\@writefile{toc}{\contentsline {subparagraph}{Ejemplo: \relax $\@@underline {\hbox {0}}\mathsurround \z@ $\relax }{2}}
\@writefile{toc}{\contentsline {paragraph}{\relax $\@@underline {\hbox {1}}\mathsurround \z@ $\relax }{2}}
\@writefile{toc}{\contentsline {subparagraph}{Ejemplo: \relax $\@@underline {\hbox {1}}\mathsurround \z@ $\relax }{2}}
\@writefile{toc}{\contentsline {paragraph}{\relax $\@@underline {\hbox {2}}\mathsurround \z@ $\relax }{2}}
\@writefile{toc}{\contentsline {paragraph}{\relax $\@@underline {\hbox {3}}\mathsurround \z@ $\relax }{2}}
\@writefile{toc}{\contentsline {subparagraph}{Ejemplo: \relax $\@@underline {\hbox {3}}\mathsurround \z@ $\relax }{2}}
\@writefile{toc}{\contentsline {paragraph}{\relax $\@@underline {\hbox {4}}\mathsurround \z@ $\relax }{2}}
\@writefile{toc}{\contentsline {subparagraph}{Ejemplo: \relax $\@@underline {\hbox {4}}\mathsurround \z@ $\relax }{2}}
