\relax 
\@writefile{toc}{\contentsline {section}{\numberline {1}Enumeraciones}{1}}
\@writefile{toc}{\contentsline {section}{\numberline {2}P\'arrafos}{2}}
\@writefile{toc}{\contentsline {section}{\numberline {3}Matem\'aticas \LaTeX  }{2}}
\@writefile{toc}{\contentsline {subsection}{\numberline {3.1}F\'ormulas b\'asicas}{2}}
\@writefile{toc}{\contentsline {subsection}{\numberline {3.2}Fub\'indices y super\'indices}{3}}
\@writefile{toc}{\contentsline {subsection}{\numberline {3.3}par\'entesis}{3}}
\@writefile{toc}{\contentsline {subsection}{\numberline {3.4}ra\'ices}{3}}
\@writefile{toc}{\contentsline {subsection}{\numberline {3.5}Matrices}{3}}
\@writefile{toc}{\contentsline {subsection}{\numberline {3.6}L\'imite y sumatorio}{3}}
\@writefile{toc}{\contentsline {subsection}{\numberline {3.7}Integrales y ra\'ices}{4}}
\@writefile{toc}{\contentsline {subsection}{\numberline {3.8}Operaciones alineadas}{4}}
\@writefile{toc}{\contentsline {section}{\numberline {4}Tablas}{4}}
