\relax 
\@writefile{toc}{\contentsline {section}{\numberline {1}Formato de texto}{1}}
\@writefile{toc}{\contentsline {subsection}{\numberline {1.1}Crear un p\'arrafo}{1}}
\@writefile{toc}{\contentsline {subsection}{\numberline {1.2}Espacio entre p\'arrafos}{2}}
\@writefile{toc}{\contentsline {section}{\numberline {2}Matem\'aticas en \LaTeX  }{2}}
\@writefile{toc}{\contentsline {subsection}{\numberline {2.1}Matem\'aticas b\'asicas}{3}}
\@writefile{toc}{\contentsline {subsection}{\numberline {2.2}Matem\'aticas avanzadas}{3}}
\@writefile{toc}{\contentsline {section}{\numberline {3}Enumeraciones}{4}}
\@writefile{toc}{\contentsline {subsection}{\numberline {3.1}Multiniveles de listas no enumeradas}{4}}
\@writefile{toc}{\contentsline {section}{\numberline {4}Listas Multinivel Mixtas}{4}}
\@writefile{toc}{\contentsline {section}{\numberline {5}Tablas}{5}}
\@writefile{toc}{\contentsline {subsection}{\numberline {5.1}Tablas con columnas}{5}}
\@writefile{toc}{\contentsline {subsection}{\numberline {5.2}Tablas cerrada}{5}}
