\relax 
\@writefile{toc}{\contentsline {section}{\numberline {1}Simbolos}{1}}
\@writefile{toc}{\contentsline {section}{\numberline {2}EXP}{1}}
\@writefile{toc}{\contentsline {section}{\numberline {3}Derivadas}{1}}
