\relax 
\@writefile{toc}{\contentsline {section}{\numberline {1}Manejo de directorios}{2}}
\@writefile{toc}{\contentsline {section}{\numberline {2}Manejo de comandos}{2}}
\@writefile{toc}{\contentsline {section}{\numberline {3}Grep}{3}}
\@writefile{toc}{\contentsline {section}{\numberline {4}Sed}{3}}
\@writefile{toc}{\contentsline {section}{\numberline {5}Awk}{3}}
