\relax 
\@writefile{toc}{\contentsline {section}{\numberline {1}Formato de texto}{1}}
\@writefile{toc}{\contentsline {subsection}{\numberline {1.1}Crear un p\'arrafo}{1}}
\@writefile{toc}{\contentsline {subsection}{\numberline {1.2}Espacio entre p\'arrafos}{2}}
\@writefile{toc}{\contentsline {subsection}{\numberline {1.3}A la iquierda}{2}}
\@writefile{toc}{\contentsline {subsection}{\numberline {1.4}Al centro}{3}}
\@writefile{toc}{\contentsline {subsection}{\numberline {1.5}A la derecha}{3}}
\@writefile{toc}{\contentsline {subsection}{\numberline {1.6}Justificado}{3}}
\@writefile{toc}{\contentsline {section}{\numberline {2}Matem\'aticas en \LaTeX  }{3}}
\@writefile{toc}{\contentsline {subsection}{\numberline {2.1}Matem\'aticas b\'asicas}{3}}
\@writefile{toc}{\contentsline {subsection}{\numberline {2.2}Matem\'aticas avanzadas}{4}}
\@writefile{toc}{\contentsline {section}{\numberline {3}Enumeraciones}{5}}
\@writefile{toc}{\contentsline {subsection}{\numberline {3.1}Multiniveles de listas no enumeradas}{5}}
\@writefile{toc}{\contentsline {section}{\numberline {4}Listas Multinivel Mixtas}{5}}
\@writefile{toc}{\contentsline {section}{\numberline {5}Tablas}{6}}
\@writefile{toc}{\contentsline {subsection}{\numberline {5.1}Tablas con columnas}{6}}
\@writefile{toc}{\contentsline {subsection}{\numberline {5.2}Tablas cerrada}{6}}
