\relax 
\catcode `"\active 
\catcode `<\active 
\catcode `>\active 
\@nameuse{es@quoting}
\babel@aux{spanish}{}
\@writefile{toc}{\contentsline {chapter}{\numberline {1}F\'ormulas \'utiles}{1}}
\@writefile{lof}{\addvspace {10\p@ }}
\@writefile{lot}{\addvspace {10\p@ }}
\@writefile{toc}{\contentsline {section}{\numberline {1.1}S\'imbolo de ra\'iz cuadrada}{1}}
\newlabel{fig:Imagen1.1}{{1.1}{1}}
\@writefile{lof}{\contentsline {figure}{\numberline {1.1}{\ignorespaces Gr\'afica de ra\'iz cuadrada}}{1}}
\@writefile{toc}{\contentsline {section}{\numberline {1.2}Fracciones}{2}}
\newlabel{fig:Imagen2}{{1.2}{2}}
\@writefile{lof}{\contentsline {figure}{\numberline {1.2}{\ignorespaces Fracciones}}{2}}
\@writefile{toc}{\contentsline {section}{\numberline {1.3}Ecuaci\'on Cuadr\'atica}{3}}
\newlabel{fig:Imagen3}{{1.3}{3}}
\@writefile{lof}{\contentsline {figure}{\numberline {1.3}{\ignorespaces Ecuaci\'on cuadr\'atica}}{3}}
\@writefile{toc}{\contentsline {section}{\numberline {1.4}Ecuaci\'on C\'ubica}{4}}
\newlabel{fig:Imagen4}{{1.4}{4}}
\@writefile{lof}{\contentsline {figure}{\numberline {1.4}{\ignorespaces Ecuaci\'on cuadr\'atica}}{4}}
