\relax 
\@writefile{toc}{\contentsline {section}{\numberline {1}Las f\'ormulas necesarias para el examen son las siguientes:}{1}}
\@writefile{toc}{\contentsline {section}{\numberline {2}Las f\'ormulas necesarias para el examen son las siguientes:}{1}}
